digraph {
rankdir=LR;

subgraph cluster_p {
label = "Story";
fontsize=32;

rankdir=LR;
fixedsize=true;
node [shape=circle, width=1, fontsize=20]
edge [fontsize=20]

1[fillcolor=red, style=filled, label = "1: Plot", width=1.5, fontsize=25];
2[label = "2: Subplot", fontsize=20];
3[label = "3: Subplot", fontsize=20];
4[fillcolor=red, style=filled, label = "4: Plot", width=1.5, fontsize=25];
5[label = "5: Subplot", fontsize=20];
6[label = "6: Subplot", fontsize=20];
7[fillcolor=red, style=filled, label = "7: Plot", width=1.5, fontsize=25];


1 -> 2;
2  -> 3;
3 -> 4;
4 -> 5;
5 -> 6;
6 -> 7;

1 -> 4[label = Causes];
4 -> 7[label = Causes];
}
}

